Last_class
…
Last_class

James Hutt

28/04/2020

## [1] "2039-05-28"

## # A tibble: 35 x 2
##    meme            image     
##    <chr>           <list>    
##  1 AllTheThings    <magck-mg>
##  2 AmericanChopper <magck-mg>
##  3 AncientAliens   <magck-mg>
##  4 BatmanRobin     <magck-mg>
##  5 DistractedBf    <magck-mg>
##  6 EvilKermit      <magck-mg>
##  7 ExpandingBrain  <magck-mg>
##  8 FirstWorldProbs <magck-mg>
##  9 FryNotSure      <magck-mg>
## 10 HotlineDrake    <magck-mg>
## # ... with 25 more rows
…
